Athena               INFO executing ROOT6Setup
ApplicationMgr       INFO Application Manager Configured successfully
AthDictLoaderSvc     INFO in initialize...
AthDictLoaderSvc     INFO acquired Dso-registry
AthenaEventLoopMgr   INFO Initializing AthenaEventLoopMgr
ReadCond             INFO in initialize()
ReadData             INFO in initialize()
MetaDataSvc          INFO Initializing MetaDataSvc
PoolSvc             DEBUG OutputLevel is 2
PoolSvc             DEBUG POOL ReadCatalog is file:Catalog0.xml
PoolSvc             DEBUG POOL ReadCatalog is file:Catalog1.xml
EventSelector       DEBUG Initializing EventSelector
EventSelector       DEBUG reinitialization...
EventSelector        INFO EventSelection with query 
EventSelector       DEBUG Try item: "SimplePoolFile1.root" from the collection list.
PoolSvc             DEBUG createCollection() type=RootCollection, connection=PFN:SimplePoolFile1.root, name=SimplePoolFile1.root, contextID=0
MetaDataSvc         DEBUG handle() FirstInputFile for FID:????
MetaDataSvc         DEBUG initInputMetaDataStore: file name FID:????
SimplePoolFile1...  DEBUG --> Access   DbContainer  READ      [ROOT_All] ##Shapes
##Shapes            DEBUG Opening
##Shapes            DEBUG    attributes# = 1
##Shapes            DEBUG Opened container ##Shapes of type ROOT_Tree
SimplePoolFile1...  DEBUG --->Reading Shape[0 , ????]: [1 Column(s)]
SimplePoolFile1...  DEBUG ---->[0]:EventInfo_p4 Typ:EventInfo_p4 [21] Size:0 Offset:0 #Elements:1
SimplePoolFile1...  DEBUG --->Reading Shape[1 , ????]: [1 Column(s)]
SimplePoolFile1...  DEBUG ---->[0]:ExampleHitContainer_p1 Typ:ExampleHitContainer_p1 [21] Size:0 Offset:0 #Elements:1
SimplePoolFile1...  DEBUG --->Reading Shape[2 , ????]: [1 Column(s)]
SimplePoolFile1...  DEBUG ---->[0]:DataHeader_p6 Typ:DataHeader_p6 [21] Size:0 Offset:0 #Elements:1
SimplePoolFile1...  DEBUG --->Reading Shape[3 , ????]: [1 Column(s)]
SimplePoolFile1...  DEBUG ---->[0]:DataHeaderForm_p6 Typ:DataHeaderForm_p6 [21] Size:0 Offset:0 #Elements:1
SimplePoolFile1...  DEBUG --->Reading Shape[4 , ????]: [1 Column(s)]
SimplePoolFile1...  DEBUG ---->[0]:Token Typ:Token [18] Size:0 Offset:0 #Elements:1
SimplePoolFile1...  DEBUG --->Reading Shape[5 , ????]: [1 Column(s)]
SimplePoolFile1...  DEBUG ---->[0]:bool Typ:bool [9] Size:0 Offset:0 #Elements:1
SimplePoolFile1...  DEBUG --->Reading Shape[6 , ????]: [1 Column(s)]
SimplePoolFile1...  DEBUG ---->[0]:unsigned int Typ:unsigned int [3] Size:0 Offset:0 #Elements:1
SimplePoolFile1...  DEBUG --->Reading Shape[7 , ????]: [1 Column(s)]
SimplePoolFile1...  DEBUG ---->[0]:unsigned long long Typ:unsigned long long [23] Size:0 Offset:0 #Elements:1
SimplePoolFile1...  DEBUG --->Reading Shape[8 , ????]: [1 Column(s)]
SimplePoolFile1...  DEBUG ---->[0]:float Typ:float [10] Size:0 Offset:0 #Elements:1
SimplePoolFile1...  DEBUG --->Reading Shape[9 , ????]: [1 Column(s)]
SimplePoolFile1...  DEBUG ---->[0]:xAOD::FileMetaDataAuxInfo_v1 Typ:xAOD::FileMetaDataAuxInfo_v1 [21] Size:0 Offset:0 #Elements:1
SimplePoolFile1...  DEBUG --->Reading Shape[10 , ????]: [1 Column(s)]
SimplePoolFile1...  DEBUG ---->[0]:EventStreamInfo_p3 Typ:EventStreamInfo_p3 [21] Size:0 Offset:0 #Elements:1
SimplePoolFile1...  DEBUG --->Reading Shape[11 , ????]: [1 Column(s)]
SimplePoolFile1...  DEBUG ---->[0]:xAOD::FileMetaData_v1 Typ:xAOD::FileMetaData_v1 [21] Size:0 Offset:0 #Elements:1
SimplePoolFile1...  DEBUG --->Reading Shape[12 , ????]: [1 Column(s)]
SimplePoolFile1...  DEBUG ---->[0]:xAOD::EventFormat_v1 Typ:xAOD::EventFormat_v1 [21] Size:0 Offset:0 #Elements:1
SimplePoolFile1...  DEBUG --->Reading Shape[13 , ????]: [1 Column(s)]
SimplePoolFile1...  DEBUG ---->[0]:IOVMetaDataContainer_p1 Typ:IOVMetaDataContainer_p1 [21] Size:0 Offset:0 #Elements:1
##Shapes            DEBUG No objects passing selection criteria... Container has 14 Entries in total.
SimplePoolFile1...  DEBUG --> Access   DbContainer  READ      [ROOT_All] ##Links
##Links             DEBUG Opening
##Links             DEBUG    attributes# = 1
##Links             DEBUG Opened container ##Links of type ROOT_Tree
SimplePoolFile1...  DEBUG --->Reading Assoc:????/##Params [200]  (2 , ffffffff)
SimplePoolFile1...  DEBUG ---->ClassID:????
SimplePoolFile1...  DEBUG --->Reading Assoc:????/CollectionTree(EventInfo_p4/McEventInfo) [203]  (3 , ffffffff)
SimplePoolFile1...  DEBUG ---->ClassID:????
SimplePoolFile1...  DEBUG --->Reading Assoc:????/CollectionTree(ExampleHitContainer_p1/MyHits) [203]  (4 , ffffffff)
SimplePoolFile1...  DEBUG ---->ClassID:????
SimplePoolFile1...  DEBUG --->Reading Assoc:????/POOLContainer(DataHeader) [203]  (5 , ffffffff)
SimplePoolFile1...  DEBUG ---->ClassID:????
SimplePoolFile1...  DEBUG --->Reading Assoc:????/POOLContainerForm(DataHeaderForm) [203]  (6 , ffffffff)
SimplePoolFile1...  DEBUG ---->ClassID:????
SimplePoolFile1...  DEBUG --->Reading Assoc:????/POOLCollectionTree(Token) [202]  (7 , ffffffff)
SimplePoolFile1...  DEBUG ---->ClassID:????
SimplePoolFile1...  DEBUG --->Reading Assoc:????/POOLCollectionTree(IsSimulation) [202]  (8 , ffffffff)
SimplePoolFile1...  DEBUG ---->ClassID:????
SimplePoolFile1...  DEBUG --->Reading Assoc:????/POOLCollectionTree(IsCalibration) [202]  (9 , ffffffff)
SimplePoolFile1...  DEBUG ---->ClassID:????
SimplePoolFile1...  DEBUG --->Reading Assoc:????/POOLCollectionTree(IsTestBeam) [202]  (a , ffffffff)
SimplePoolFile1...  DEBUG ---->ClassID:????
SimplePoolFile1...  DEBUG --->Reading Assoc:????/POOLCollectionTree(McChannel) [202]  (b , ffffffff)
SimplePoolFile1...  DEBUG ---->ClassID:????
SimplePoolFile1...  DEBUG --->Reading Assoc:????/POOLCollectionTree(RunNumber) [202]  (c , ffffffff)
SimplePoolFile1...  DEBUG ---->ClassID:????
SimplePoolFile1...  DEBUG --->Reading Assoc:????/POOLCollectionTree(EventNumber) [202]  (d , ffffffff)
SimplePoolFile1...  DEBUG ---->ClassID:????
SimplePoolFile1...  DEBUG --->Reading Assoc:????/POOLCollectionTree(LumiBlockN) [202]  (e , ffffffff)
SimplePoolFile1...  DEBUG ---->ClassID:????
SimplePoolFile1...  DEBUG --->Reading Assoc:????/POOLCollectionTree(ConditionsRun) [202]  (f , ffffffff)
SimplePoolFile1...  DEBUG ---->ClassID:????
SimplePoolFile1...  DEBUG --->Reading Assoc:????/POOLCollectionTree(EventTime) [202]  (10 , ffffffff)
SimplePoolFile1...  DEBUG ---->ClassID:????
SimplePoolFile1...  DEBUG --->Reading Assoc:????/POOLCollectionTree(EventTimeNanoSec) [202]  (11 , ffffffff)
SimplePoolFile1...  DEBUG ---->ClassID:????
SimplePoolFile1...  DEBUG --->Reading Assoc:????/POOLCollectionTree(BunchId) [202]  (12 , ffffffff)
SimplePoolFile1...  DEBUG ---->ClassID:????
SimplePoolFile1...  DEBUG --->Reading Assoc:????/POOLCollectionTree(EventWeight) [202]  (13 , ffffffff)
SimplePoolFile1...  DEBUG ---->ClassID:????
SimplePoolFile1...  DEBUG --->Reading Assoc:????/MetaData(xAOD::FileMetaDataAuxInfo_v1/FileMetaDataAux.) [203]  (14 , ffffffff)
SimplePoolFile1...  DEBUG ---->ClassID:????
SimplePoolFile1...  DEBUG --->Reading Assoc:????/MetaData(EventStreamInfo_p3/Stream1) [203]  (15 , ffffffff)
SimplePoolFile1...  DEBUG ---->ClassID:????
SimplePoolFile1...  DEBUG --->Reading Assoc:????/MetaData(xAOD::FileMetaData_v1/FileMetaData) [203]  (16 , ffffffff)
SimplePoolFile1...  DEBUG ---->ClassID:????
SimplePoolFile1...  DEBUG --->Reading Assoc:????/MetaData(xAOD::EventFormat_v1/EventFormatStream1) [203]  (17 , ffffffff)
SimplePoolFile1...  DEBUG ---->ClassID:????
SimplePoolFile1...  DEBUG --->Reading Assoc:????/MetaData(IOVMetaDataContainer_p1//TagInfo) [203]  (18 , ffffffff)
SimplePoolFile1...  DEBUG ---->ClassID:????
SimplePoolFile1...  DEBUG --->Reading Assoc:????/MetaDataHdr(DataHeader) [203]  (19 , ffffffff)
SimplePoolFile1...  DEBUG ---->ClassID:????
SimplePoolFile1...  DEBUG --->Reading Assoc:????/MetaDataHdrForm(DataHeaderForm) [203]  (1a , ffffffff)
SimplePoolFile1...  DEBUG ---->ClassID:????
##Links             DEBUG No objects passing selection criteria... Container has 25 Entries in total.
SimplePoolFile1...  DEBUG --> Access   DbContainer  READ      [ROOT_All] ##Params
##Params            DEBUG Opening
##Params            DEBUG    attributes# = 1
##Params            DEBUG Opened container ##Params of type ROOT_Tree
SimplePoolFile1...  DEBUG --->Reading Param:FID=[????]
SimplePoolFile1...  DEBUG --->Reading Param:PFN=[SimplePoolFile1.root]
SimplePoolFile1...  DEBUG --->Reading Param:POOL_VSN=[1.1]
SimplePoolFile1...  DEBUG --->Reading Param:FORMAT_VSN=[1.1]
##Params            DEBUG No objects passing selection criteria... Container has 4 Entries in total.
SimplePoolFile1...  DEBUG --> Access   DbContainer  READ      [ROOT_Tree] MetaDataHdr(DataHeader)
MetaDataHdr(Dat...  DEBUG Opening
MetaDataHdr(Dat...  DEBUG    attributes# = 1
MetaDataHdr(Dat...  DEBUG Branch container 'DataHeader'
MetaDataHdr(Dat...  DEBUG Opened container MetaDataHdr(DataHeader) of type ROOT_Tree
SimplePoolFile1...  DEBUG --> Access   DbContainer  READ      [ROOT_Tree] MetaDataHdrForm(DataHeaderForm)
MetaDataHdrForm...  DEBUG Opening
MetaDataHdrForm...  DEBUG    attributes# = 1
MetaDataHdrForm...  DEBUG Branch container 'DataHeaderForm'
MetaDataHdrForm...  DEBUG Opened container MetaDataHdrForm(DataHeaderForm) of type ROOT_Tree
MetaDataSvc         DEBUG Loaded input meta data store proxies
SimplePoolFile1...  DEBUG --> Access   DbContainer  READ      [ROOT_Tree] MetaData(IOVMetaDataContainer_p1//TagInfo)
MetaData(IOVMet...  DEBUG Opening
MetaData(IOVMet...  DEBUG    attributes# = 1
MetaData(IOVMet...  DEBUG Branch container 'IOVMetaDataContainer_p1__TagInfo'
MetaData(IOVMet...  DEBUG Opened container MetaData(IOVMetaDataContainer_p1//TagInfo) of type ROOT_Tree
MetaDataSvc         DEBUG Registering all Tools in ToolHandleArray MetaDataTools
MetaDataSvc         DEBUG Adding public ToolHandle tool ToolSvc.IOVDbMetaDataTool (IOVDbMetaDataTool)
CondProxyProvider    INFO Initializing CondProxyProvider
CondProxyProvider    INFO Inputs: SimplePoolFile4.root
CondProxyProvider   DEBUG Try item: "SimplePoolFile4.root" from the collection list.
PoolSvc             DEBUG createCollection() type=RootCollection, connection=PFN:SimplePoolFile4.root, name=SimplePoolFile4.root, contextID=2
PoolSvc             DEBUG createCollection() type=ImplicitCollection, connection=PFN:SimplePoolFile4.root, name=POOLContainer(DataHeader), contextID=2
SimplePoolFile4...  DEBUG --> Access   DbContainer  READ      [ROOT_All] ##Shapes
##Shapes            DEBUG Opening
##Shapes            DEBUG    attributes# = 1
##Shapes            DEBUG Opened container ##Shapes of type ROOT_Tree
SimplePoolFile4...  DEBUG --->Reading Shape[0 , ????]: [1 Column(s)]
SimplePoolFile4...  DEBUG ---->[0]:ExampleHitContainer_p1 Typ:ExampleHitContainer_p1 [21] Size:0 Offset:0 #Elements:1
SimplePoolFile4...  DEBUG --->Reading Shape[1 , ????]: [1 Column(s)]
SimplePoolFile4...  DEBUG ---->[0]:DataHeader_p6 Typ:DataHeader_p6 [21] Size:0 Offset:0 #Elements:1
SimplePoolFile4...  DEBUG --->Reading Shape[2 , ????]: [1 Column(s)]
SimplePoolFile4...  DEBUG ---->[0]:DataHeaderForm_p6 Typ:DataHeaderForm_p6 [21] Size:0 Offset:0 #Elements:1
##Shapes            DEBUG No objects passing selection criteria... Container has 3 Entries in total.
SimplePoolFile4...  DEBUG --> Access   DbContainer  READ      [ROOT_All] ##Links
##Links             DEBUG Opening
##Links             DEBUG    attributes# = 1
##Links             DEBUG Opened container ##Links of type ROOT_Tree
SimplePoolFile4...  DEBUG --->Reading Assoc:????/##Params [200]  (2 , ffffffff)
SimplePoolFile4...  DEBUG ---->ClassID:????
SimplePoolFile4...  DEBUG --->Reading Assoc:????/ConditionsContainerExampleHitContainer_p1(PedestalWriteData) [203]  (3 , ffffffff)
SimplePoolFile4...  DEBUG ---->ClassID:????
SimplePoolFile4...  DEBUG --->Reading Assoc:????/POOLContainer(DataHeader) [203]  (4 , ffffffff)
SimplePoolFile4...  DEBUG ---->ClassID:????
SimplePoolFile4...  DEBUG --->Reading Assoc:????/POOLContainerForm(DataHeaderForm) [203]  (5 , ffffffff)
SimplePoolFile4...  DEBUG ---->ClassID:????
##Links             DEBUG No objects passing selection criteria... Container has 4 Entries in total.
SimplePoolFile4...  DEBUG --> Access   DbContainer  READ      [ROOT_All] ##Params
##Params            DEBUG Opening
##Params            DEBUG    attributes# = 1
##Params            DEBUG Opened container ##Params of type ROOT_Tree
SimplePoolFile4...  DEBUG --->Reading Param:FID=[????]
SimplePoolFile4...  DEBUG --->Reading Param:PFN=[SimplePoolFile4.root]
SimplePoolFile4...  DEBUG --->Reading Param:POOL_VSN=[1.1]
SimplePoolFile4...  DEBUG --->Reading Param:FORMAT_VSN=[1.1]
##Params            DEBUG No objects passing selection criteria... Container has 4 Entries in total.
  + INPUT   ( 'ExampleHitContainer' , 'StoreGateSvc+MyHits' ) 
  + INPUT   ( 'ExampleTrackContainer' , 'StoreGateSvc+MyTracks' ) 
AthenaEventLoopMgr   INFO Setup EventSelector service EventSelector
ApplicationMgr       INFO Application Manager Initialized successfully
EventSelector       DEBUG Try item: "SimplePoolFile1.root" from the collection list.
PoolSvc             DEBUG createCollection() type=RootCollection, connection=PFN:SimplePoolFile1.root, name=SimplePoolFile1.root, contextID=0
ApplicationMgr       INFO Application Manager Started successfully
RootDatabase.se...  DEBUG Request tree cache 
RootDatabase.se...  DEBUG File name SimplePoolFile1.root
RootDatabase.se...  DEBUG Got tree CollectionTree read entry -1
RootDatabase.se...  DEBUG Using Tree cache. Size: -1 Nevents to learn with: -1
MetaDataSvc         DEBUG handle() BeginInputFile for SimplePoolFile1.root
MetaDataSvc         DEBUG initInputMetaDataStore: file name SimplePoolFile1.root
MetaDataSvc         DEBUG Loaded input meta data store proxies
MetaDataSvc         DEBUG  calling beginInputFile for ToolSvc.IOVDbMetaDataTool
EventSelector       DEBUG Get AttributeList from the collection
EventSelector       DEBUG AttributeList size 12
EventSelector       DEBUG record AthenaAttribute, name = Token = [DB=????][CNT=POOLContainer(DataHeader)][CLID=????][TECH=00000203][OID=00000005-00000000].
EventSelector       DEBUG record AthenaAttribute, name = eventRef = [DB=????][CNT=POOLContainer(DataHeader)][CLID=????][TECH=00000203][OID=00000005-00000000].
EventSelector       DEBUG found AthenaAttribute, name = eventRef = [DB=????][CNT=POOLContainer(DataHeader)][CLID=????][TECH=00000203][OID=00000005-00000000]
SimplePoolFile1...  DEBUG --> Access   DbContainer  READ      [ROOT_Tree] POOLContainer(DataHeader)
POOLContainer(D...  DEBUG Opening
POOLContainer(D...  DEBUG    attributes# = 1
POOLContainer(D...  DEBUG Branch container 'DataHeader'
POOLContainer(D...  DEBUG Opened container POOLContainer(DataHeader) of type ROOT_Tree
SimplePoolFile1...  DEBUG --> Access   DbContainer  READ      [ROOT_Tree] POOLContainerForm(DataHeaderForm)
POOLContainerFo...  DEBUG Opening
POOLContainerFo...  DEBUG    attributes# = 1
POOLContainerFo...  DEBUG Branch container 'DataHeaderForm'
POOLContainerFo...  DEBUG Opened container POOLContainerForm(DataHeaderForm) of type ROOT_Tree
AthenaPoolAddre...  DEBUG The current Event contains: 3 objects
AthenaPoolAddre...  DEBUG loadAddresses: DataObject address, clid = 2101, name = McEventInfo
AthenaPoolAddre...  DEBUG loadAddresses: DataObject address, clid = 9102, name = MyHits
AthenaEventLoopMgr   INFO   ===>>>  start of run 1    <<<===
AthenaEventLoopMgr   INFO   ===>>>  start processing event #0, run #1 0 events processed so far  <<<===
ReadCond            DEBUG in execute()
AthenaPoolAddre...  DEBUG Cannot retrieve DataHeader from DetectorStore.
SimplePoolFile4...  DEBUG --> Access   DbContainer  READ      [ROOT_Tree] POOLContainer(DataHeader)
POOLContainer(D...  DEBUG Opening
POOLContainer(D...  DEBUG    attributes# = 1
POOLContainer(D...  DEBUG Branch container 'DataHeader'
POOLContainer(D...  DEBUG Opened container POOLContainer(DataHeader) of type ROOT_Tree
SimplePoolFile4...  DEBUG --> Access   DbContainer  READ      [ROOT_Tree] POOLContainerForm(DataHeaderForm)
POOLContainerFo...  DEBUG Opening
POOLContainerFo...  DEBUG    attributes# = 1
POOLContainerFo...  DEBUG Branch container 'DataHeaderForm'
POOLContainerFo...  DEBUG Opened container POOLContainerForm(DataHeaderForm) of type ROOT_Tree
CondProxyProvider   DEBUG The current File contains: 2 objects
CondProxyProvider   DEBUG preLoadAddresses: DataObject address, clid = 9102, name = PedestalWriteData
SimplePoolFile4...  DEBUG --> Access   DbContainer  READ      [ROOT_All] ##Shapes
##Shapes            DEBUG Opening
##Shapes            DEBUG    attributes# = 1
##Shapes            DEBUG Opened container ##Shapes of type ROOT_Tree
SimplePoolFile4...  DEBUG --->Reading Shape[0 , ????]: [1 Column(s)]
SimplePoolFile4...  DEBUG ---->[0]:ExampleHitContainer_p1 Typ:ExampleHitContainer_p1 [21] Size:0 Offset:0 #Elements:1
SimplePoolFile4...  DEBUG --->Reading Shape[1 , ????]: [1 Column(s)]
SimplePoolFile4...  DEBUG ---->[0]:DataHeader_p6 Typ:DataHeader_p6 [21] Size:0 Offset:0 #Elements:1
SimplePoolFile4...  DEBUG --->Reading Shape[2 , ????]: [1 Column(s)]
SimplePoolFile4...  DEBUG ---->[0]:DataHeaderForm_p6 Typ:DataHeaderForm_p6 [21] Size:0 Offset:0 #Elements:1
##Shapes            DEBUG No objects passing selection criteria... Container has 3 Entries in total.
SimplePoolFile4...  DEBUG --> Access   DbContainer  READ      [ROOT_All] ##Links
##Links             DEBUG Opening
##Links             DEBUG    attributes# = 1
##Links             DEBUG Opened container ##Links of type ROOT_Tree
SimplePoolFile4...  DEBUG --->Reading Assoc:????/##Params [200]  (2 , ffffffff)
SimplePoolFile4...  DEBUG ---->ClassID:????
SimplePoolFile4...  DEBUG --->Reading Assoc:????/ConditionsContainerExampleHitContainer_p1(PedestalWriteData) [203]  (3 , ffffffff)
SimplePoolFile4...  DEBUG ---->ClassID:????
SimplePoolFile4...  DEBUG --->Reading Assoc:????/POOLContainer(DataHeader) [203]  (4 , ffffffff)
SimplePoolFile4...  DEBUG ---->ClassID:????
SimplePoolFile4...  DEBUG --->Reading Assoc:????/POOLContainerForm(DataHeaderForm) [203]  (5 , ffffffff)
SimplePoolFile4...  DEBUG ---->ClassID:????
##Links             DEBUG No objects passing selection criteria... Container has 4 Entries in total.
SimplePoolFile4...  DEBUG --> Access   DbContainer  READ      [ROOT_All] ##Params
##Params            DEBUG Opening
##Params            DEBUG    attributes# = 1
##Params            DEBUG Opened container ##Params of type ROOT_Tree
SimplePoolFile4...  DEBUG --->Reading Param:FID=[????]
SimplePoolFile4...  DEBUG --->Reading Param:PFN=[SimplePoolFile4.root]
SimplePoolFile4...  DEBUG --->Reading Param:POOL_VSN=[1.1]
SimplePoolFile4...  DEBUG --->Reading Param:FORMAT_VSN=[1.1]
##Params            DEBUG No objects passing selection criteria... Container has 4 Entries in total.
SimplePoolFile4...  DEBUG --> Access   DbContainer  READ      [ROOT_Tree] ConditionsContainerExampleHitContainer_p1(PedestalWriteData)
ConditionsConta...  DEBUG Opening
ConditionsConta...  DEBUG    attributes# = 1
ConditionsConta...  DEBUG Branch container 'PedestalWriteData'
ConditionsConta...  DEBUG Opened container ConditionsContainerExampleHitContainer_p1(PedestalWriteData) of type ROOT_Tree
ReadCond             INFO Pedestal x = 193136 y = 14420 z = -175208 string = <..........o..........o..........o..........o..........o..........o..........o..........o..........o..........o..........o..........o..........o..........o..........o..........o..........o..........o..........o..........o>
ReadData            DEBUG in execute()
SimplePoolFile1...  DEBUG --> Access   DbContainer  READ      [ROOT_Tree] MetaData(EventStreamInfo_p3/Stream1)
MetaData(EventS...  DEBUG Opening
MetaData(EventS...  DEBUG    attributes# = 1
MetaData(EventS...  DEBUG Branch container 'EventStreamInfo_p3_Stream1'
MetaData(EventS...  DEBUG Opened container MetaData(EventStreamInfo_p3/Stream1) of type ROOT_Tree
ReadData             INFO EventStreamInfo: Number of events = 20
ReadData             INFO EventStreamInfo: ItemList:
ReadData             INFO CLID = 2101, key = McEventInfo
ReadData             INFO CLID = 9102, key = MyHits
ReadData             INFO CLID = 222376821, key = StreamX
ReadData             INFO EventType: Event type: sim/data -  is sim , testbeam/atlas -  is atlas , calib/physics -  is physics 
ReadData             INFO TagInfo: 
ReadData             INFO EventInfo event: 0 run: 1
ReadData             INFO Get Smart data ptr 1
ReadData             INFO Could not find ExampleTrackContainer/MyTracks
SimplePoolFile1...  DEBUG --> Access   DbContainer  READ      [ROOT_Tree] CollectionTree(ExampleHitContainer_p1/MyHits)
CollectionTree(...  DEBUG Opening
CollectionTree(...  DEBUG    attributes# = 1
CollectionTree(...  DEBUG Branch container 'ExampleHitContainer_p1_MyHits'
CollectionTree(...  DEBUG Opened container CollectionTree(ExampleHitContainer_p1/MyHits) of type ROOT_Tree
ReadData             INFO Hit x = 1.2345 y = 97.655 z = 226.672 detector = DummyHitDetector
ReadData             INFO Hit x = 4.4445 y = 91.9761 z = 94.7318 detector = DummyHitDetector
ReadData             INFO Hit x = 7.6545 y = 86.2972 z = 70.2348 detector = DummyHitDetector
ReadData             INFO Hit x = 10.8645 y = 80.6183 z = 59.9142 detector = DummyHitDetector
ReadData             INFO Hit x = 14.0745 y = 74.9394 z = 54.2259 detector = DummyHitDetector
ReadData             INFO Hit x = 17.2845 y = 69.2605 z = 50.6227 detector = DummyHitDetector
ReadData             INFO Hit x = 20.4945 y = 63.5816 z = 48.1358 detector = DummyHitDetector
ReadData             INFO Hit x = 23.7045 y = 57.9027 z = 46.3159 detector = DummyHitDetector
ReadData             INFO Hit x = 26.9145 y = 52.2238 z = 44.9265 detector = DummyHitDetector
ReadData             INFO Hit x = 30.1245 y = 46.5449 z = 43.831 detector = DummyHitDetector
AthenaEventLoopMgr   INFO   ===>>>  done processing event #0, run #1 1 events processed so far  <<<===
EventSelector       DEBUG Get AttributeList from the collection
EventSelector       DEBUG AttributeList size 12
EventSelector       DEBUG record AthenaAttribute, name = Token = [DB=????][CNT=POOLContainer(DataHeader)][CLID=????][TECH=00000203][OID=00000005-00000001].
EventSelector       DEBUG record AthenaAttribute, name = eventRef = [DB=????][CNT=POOLContainer(DataHeader)][CLID=????][TECH=00000203][OID=00000005-00000001].
EventSelector       DEBUG found AthenaAttribute, name = eventRef = [DB=????][CNT=POOLContainer(DataHeader)][CLID=????][TECH=00000203][OID=00000005-00000001]
AthenaPoolAddre...  DEBUG The current Event contains: 3 objects
AthenaPoolAddre...  DEBUG loadAddresses: DataObject address, clid = 2101, name = McEventInfo
AthenaPoolAddre...  DEBUG loadAddresses: DataObject address, clid = 9102, name = MyHits
AthenaEventLoopMgr   INFO   ===>>>  start processing event #1, run #1 1 events processed so far  <<<===
ReadCond            DEBUG in execute()
ReadCond             INFO Pedestal x = 193136 y = 14420 z = -175208 string = <..........o..........o..........o..........o..........o..........o..........o..........o..........o..........o..........o..........o..........o..........o..........o..........o..........o..........o..........o..........o>
ReadData            DEBUG in execute()
ReadData             INFO EventStreamInfo: Number of events = 20
ReadData             INFO EventStreamInfo: ItemList:
ReadData             INFO CLID = 2101, key = McEventInfo
ReadData             INFO CLID = 9102, key = MyHits
ReadData             INFO CLID = 222376821, key = StreamX
ReadData             INFO EventType: Event type: sim/data -  is sim , testbeam/atlas -  is atlas , calib/physics -  is physics 
ReadData             INFO TagInfo: 
ReadData             INFO EventInfo event: 1 run: 1
ReadData             INFO Get Smart data ptr 1
ReadData             INFO Could not find ExampleTrackContainer/MyTracks
ReadData             INFO Hit x = 101.234 y = 97.655 z = 126.672 detector = DummyHitDetector
ReadData             INFO Hit x = 104.444 y = 91.9761 z = -5.26816 detector = DummyHitDetector
ReadData             INFO Hit x = 107.654 y = 86.2972 z = -29.7652 detector = DummyHitDetector
ReadData             INFO Hit x = 110.864 y = 80.6183 z = -40.0858 detector = DummyHitDetector
ReadData             INFO Hit x = 114.075 y = 74.9394 z = -45.7741 detector = DummyHitDetector
ReadData             INFO Hit x = 117.284 y = 69.2605 z = -49.3773 detector = DummyHitDetector
ReadData             INFO Hit x = 120.494 y = 63.5816 z = -51.8642 detector = DummyHitDetector
ReadData             INFO Hit x = 123.704 y = 57.9027 z = -53.6841 detector = DummyHitDetector
ReadData             INFO Hit x = 126.915 y = 52.2238 z = -55.0735 detector = DummyHitDetector
ReadData             INFO Hit x = 130.125 y = 46.5449 z = -56.169 detector = DummyHitDetector
AthenaEventLoopMgr   INFO   ===>>>  done processing event #1, run #1 2 events processed so far  <<<===
EventSelector       DEBUG Get AttributeList from the collection
EventSelector       DEBUG AttributeList size 12
EventSelector       DEBUG record AthenaAttribute, name = Token = [DB=????][CNT=POOLContainer(DataHeader)][CLID=????][TECH=00000203][OID=00000005-00000002].
EventSelector       DEBUG record AthenaAttribute, name = eventRef = [DB=????][CNT=POOLContainer(DataHeader)][CLID=????][TECH=00000203][OID=00000005-00000002].
EventSelector       DEBUG found AthenaAttribute, name = eventRef = [DB=????][CNT=POOLContainer(DataHeader)][CLID=????][TECH=00000203][OID=00000005-00000002]
AthenaPoolAddre...  DEBUG The current Event contains: 3 objects
AthenaPoolAddre...  DEBUG loadAddresses: DataObject address, clid = 2101, name = McEventInfo
AthenaPoolAddre...  DEBUG loadAddresses: DataObject address, clid = 9102, name = MyHits
AthenaEventLoopMgr   INFO   ===>>>  start processing event #2, run #1 2 events processed so far  <<<===
ReadCond            DEBUG in execute()
ReadCond             INFO Pedestal x = 193136 y = 14420 z = -175208 string = <..........o..........o..........o..........o..........o..........o..........o..........o..........o..........o..........o..........o..........o..........o..........o..........o..........o..........o..........o..........o>
ReadData            DEBUG in execute()
ReadData             INFO EventStreamInfo: Number of events = 20
ReadData             INFO EventStreamInfo: ItemList:
ReadData             INFO CLID = 2101, key = McEventInfo
ReadData             INFO CLID = 9102, key = MyHits
ReadData             INFO CLID = 222376821, key = StreamX
ReadData             INFO EventType: Event type: sim/data -  is sim , testbeam/atlas -  is atlas , calib/physics -  is physics 
ReadData             INFO TagInfo: 
ReadData             INFO EventInfo event: 2 run: 1
ReadData             INFO Get Smart data ptr 1
ReadData             INFO Could not find ExampleTrackContainer/MyTracks
ReadData             INFO Hit x = 201.234 y = 97.655 z = 26.6723 detector = DummyHitDetector
ReadData             INFO Hit x = 204.445 y = 91.9761 z = -105.268 detector = DummyHitDetector
ReadData             INFO Hit x = 207.654 y = 86.2972 z = -129.765 detector = DummyHitDetector
ReadData             INFO Hit x = 210.864 y = 80.6183 z = -140.086 detector = DummyHitDetector
ReadData             INFO Hit x = 214.075 y = 74.9394 z = -145.774 detector = DummyHitDetector
ReadData             INFO Hit x = 217.285 y = 69.2605 z = -149.377 detector = DummyHitDetector
ReadData             INFO Hit x = 220.494 y = 63.5816 z = -151.864 detector = DummyHitDetector
ReadData             INFO Hit x = 223.704 y = 57.9027 z = -153.684 detector = DummyHitDetector
ReadData             INFO Hit x = 226.915 y = 52.2238 z = -155.073 detector = DummyHitDetector
ReadData             INFO Hit x = 230.125 y = 46.5449 z = -156.169 detector = DummyHitDetector
AthenaEventLoopMgr   INFO   ===>>>  done processing event #2, run #1 3 events processed so far  <<<===
EventSelector       DEBUG Get AttributeList from the collection
EventSelector       DEBUG AttributeList size 12
EventSelector       DEBUG record AthenaAttribute, name = Token = [DB=????][CNT=POOLContainer(DataHeader)][CLID=????][TECH=00000203][OID=00000005-00000003].
EventSelector       DEBUG record AthenaAttribute, name = eventRef = [DB=????][CNT=POOLContainer(DataHeader)][CLID=????][TECH=00000203][OID=00000005-00000003].
EventSelector       DEBUG found AthenaAttribute, name = eventRef = [DB=????][CNT=POOLContainer(DataHeader)][CLID=????][TECH=00000203][OID=00000005-00000003]
AthenaPoolAddre...  DEBUG The current Event contains: 3 objects
AthenaPoolAddre...  DEBUG loadAddresses: DataObject address, clid = 2101, name = McEventInfo
AthenaPoolAddre...  DEBUG loadAddresses: DataObject address, clid = 9102, name = MyHits
AthenaEventLoopMgr   INFO   ===>>>  start processing event #3, run #1 3 events processed so far  <<<===
ReadCond            DEBUG in execute()
ReadCond             INFO Pedestal x = 193136 y = 14420 z = -175208 string = <..........o..........o..........o..........o..........o..........o..........o..........o..........o..........o..........o..........o..........o..........o..........o..........o..........o..........o..........o..........o>
ReadData            DEBUG in execute()
ReadData             INFO EventStreamInfo: Number of events = 20
ReadData             INFO EventStreamInfo: ItemList:
ReadData             INFO CLID = 2101, key = McEventInfo
ReadData             INFO CLID = 9102, key = MyHits
ReadData             INFO CLID = 222376821, key = StreamX
ReadData             INFO EventType: Event type: sim/data -  is sim , testbeam/atlas -  is atlas , calib/physics -  is physics 
ReadData             INFO TagInfo: 
ReadData             INFO EventInfo event: 3 run: 1
ReadData             INFO Get Smart data ptr 1
ReadData             INFO Could not find ExampleTrackContainer/MyTracks
ReadData             INFO Hit x = 301.235 y = 97.655 z = -73.3277 detector = DummyHitDetector
ReadData             INFO Hit x = 304.445 y = 91.9761 z = -205.268 detector = DummyHitDetector
ReadData             INFO Hit x = 307.655 y = 86.2972 z = -229.765 detector = DummyHitDetector
ReadData             INFO Hit x = 310.865 y = 80.6183 z = -240.086 detector = DummyHitDetector
ReadData             INFO Hit x = 314.075 y = 74.9394 z = -245.774 detector = DummyHitDetector
ReadData             INFO Hit x = 317.285 y = 69.2605 z = -249.377 detector = DummyHitDetector
ReadData             INFO Hit x = 320.495 y = 63.5816 z = -251.864 detector = DummyHitDetector
ReadData             INFO Hit x = 323.705 y = 57.9027 z = -253.684 detector = DummyHitDetector
ReadData             INFO Hit x = 326.915 y = 52.2238 z = -255.073 detector = DummyHitDetector
ReadData             INFO Hit x = 330.125 y = 46.5449 z = -256.169 detector = DummyHitDetector
AthenaEventLoopMgr   INFO   ===>>>  done processing event #3, run #1 4 events processed so far  <<<===
EventSelector       DEBUG Get AttributeList from the collection
EventSelector       DEBUG AttributeList size 12
EventSelector       DEBUG record AthenaAttribute, name = Token = [DB=????][CNT=POOLContainer(DataHeader)][CLID=????][TECH=00000203][OID=00000005-00000004].
EventSelector       DEBUG record AthenaAttribute, name = eventRef = [DB=????][CNT=POOLContainer(DataHeader)][CLID=????][TECH=00000203][OID=00000005-00000004].
EventSelector       DEBUG found AthenaAttribute, name = eventRef = [DB=????][CNT=POOLContainer(DataHeader)][CLID=????][TECH=00000203][OID=00000005-00000004]
AthenaPoolAddre...  DEBUG The current Event contains: 3 objects
AthenaPoolAddre...  DEBUG loadAddresses: DataObject address, clid = 2101, name = McEventInfo
AthenaPoolAddre...  DEBUG loadAddresses: DataObject address, clid = 9102, name = MyHits
AthenaEventLoopMgr   INFO   ===>>>  start processing event #4, run #1 4 events processed so far  <<<===
ReadCond            DEBUG in execute()
ReadCond             INFO Pedestal x = 193136 y = 14420 z = -175208 string = <..........o..........o..........o..........o..........o..........o..........o..........o..........o..........o..........o..........o..........o..........o..........o..........o..........o..........o..........o..........o>
ReadData            DEBUG in execute()
ReadData             INFO EventStreamInfo: Number of events = 20
ReadData             INFO EventStreamInfo: ItemList:
ReadData             INFO CLID = 2101, key = McEventInfo
ReadData             INFO CLID = 9102, key = MyHits
ReadData             INFO CLID = 222376821, key = StreamX
ReadData             INFO EventType: Event type: sim/data -  is sim , testbeam/atlas -  is atlas , calib/physics -  is physics 
ReadData             INFO TagInfo: 
ReadData             INFO EventInfo event: 4 run: 1
ReadData             INFO Get Smart data ptr 1
ReadData             INFO Could not find ExampleTrackContainer/MyTracks
ReadData             INFO Hit x = 401.235 y = 97.655 z = -173.328 detector = DummyHitDetector
ReadData             INFO Hit x = 404.445 y = 91.9761 z = -305.268 detector = DummyHitDetector
ReadData             INFO Hit x = 407.655 y = 86.2972 z = -329.765 detector = DummyHitDetector
ReadData             INFO Hit x = 410.865 y = 80.6183 z = -340.086 detector = DummyHitDetector
ReadData             INFO Hit x = 414.075 y = 74.9394 z = -345.774 detector = DummyHitDetector
ReadData             INFO Hit x = 417.285 y = 69.2605 z = -349.377 detector = DummyHitDetector
ReadData             INFO Hit x = 420.495 y = 63.5816 z = -351.864 detector = DummyHitDetector
ReadData             INFO Hit x = 423.705 y = 57.9027 z = -353.684 detector = DummyHitDetector
ReadData             INFO Hit x = 426.915 y = 52.2238 z = -355.073 detector = DummyHitDetector
ReadData             INFO Hit x = 430.125 y = 46.5449 z = -356.169 detector = DummyHitDetector
AthenaEventLoopMgr   INFO   ===>>>  done processing event #4, run #1 5 events processed so far  <<<===
EventSelector       DEBUG Get AttributeList from the collection
EventSelector       DEBUG AttributeList size 12
EventSelector       DEBUG record AthenaAttribute, name = Token = [DB=????][CNT=POOLContainer(DataHeader)][CLID=????][TECH=00000203][OID=00000005-00000005].
EventSelector       DEBUG record AthenaAttribute, name = eventRef = [DB=????][CNT=POOLContainer(DataHeader)][CLID=????][TECH=00000203][OID=00000005-00000005].
EventSelector       DEBUG found AthenaAttribute, name = eventRef = [DB=????][CNT=POOLContainer(DataHeader)][CLID=????][TECH=00000203][OID=00000005-00000005]
AthenaPoolAddre...  DEBUG The current Event contains: 3 objects
AthenaPoolAddre...  DEBUG loadAddresses: DataObject address, clid = 2101, name = McEventInfo
AthenaPoolAddre...  DEBUG loadAddresses: DataObject address, clid = 9102, name = MyHits
AthenaEventLoopMgr   INFO   ===>>>  start processing event #5, run #1 5 events processed so far  <<<===
ReadCond            DEBUG in execute()
ReadCond             INFO Pedestal x = 193136 y = 14420 z = -175208 string = <..........o..........o..........o..........o..........o..........o..........o..........o..........o..........o..........o..........o..........o..........o..........o..........o..........o..........o..........o..........o>
ReadData            DEBUG in execute()
ReadData             INFO EventStreamInfo: Number of events = 20
ReadData             INFO EventStreamInfo: ItemList:
ReadData             INFO CLID = 2101, key = McEventInfo
ReadData             INFO CLID = 9102, key = MyHits
ReadData             INFO CLID = 222376821, key = StreamX
ReadData             INFO EventType: Event type: sim/data -  is sim , testbeam/atlas -  is atlas , calib/physics -  is physics 
ReadData             INFO TagInfo: 
ReadData             INFO EventInfo event: 5 run: 1
ReadData             INFO Get Smart data ptr 1
ReadData             INFO Could not find ExampleTrackContainer/MyTracks
ReadData             INFO Hit x = 501.235 y = 97.655 z = -273.328 detector = DummyHitDetector
ReadData             INFO Hit x = 504.445 y = 91.9761 z = -405.268 detector = DummyHitDetector
ReadData             INFO Hit x = 507.655 y = 86.2972 z = -429.765 detector = DummyHitDetector
ReadData             INFO Hit x = 510.865 y = 80.6183 z = -440.086 detector = DummyHitDetector
ReadData             INFO Hit x = 514.075 y = 74.9394 z = -445.774 detector = DummyHitDetector
ReadData             INFO Hit x = 517.284 y = 69.2605 z = -449.377 detector = DummyHitDetector
ReadData             INFO Hit x = 520.495 y = 63.5816 z = -451.864 detector = DummyHitDetector
ReadData             INFO Hit x = 523.705 y = 57.9027 z = -453.684 detector = DummyHitDetector
ReadData             INFO Hit x = 526.914 y = 52.2238 z = -455.073 detector = DummyHitDetector
ReadData             INFO Hit x = 530.125 y = 46.5449 z = -456.169 detector = DummyHitDetector
AthenaEventLoopMgr   INFO   ===>>>  done processing event #5, run #1 6 events processed so far  <<<===
EventSelector       DEBUG Get AttributeList from the collection
EventSelector       DEBUG AttributeList size 12
EventSelector       DEBUG record AthenaAttribute, name = Token = [DB=????][CNT=POOLContainer(DataHeader)][CLID=????][TECH=00000203][OID=00000005-00000006].
EventSelector       DEBUG record AthenaAttribute, name = eventRef = [DB=????][CNT=POOLContainer(DataHeader)][CLID=????][TECH=00000203][OID=00000005-00000006].
EventSelector       DEBUG found AthenaAttribute, name = eventRef = [DB=????][CNT=POOLContainer(DataHeader)][CLID=????][TECH=00000203][OID=00000005-00000006]
AthenaPoolAddre...  DEBUG The current Event contains: 3 objects
AthenaPoolAddre...  DEBUG loadAddresses: DataObject address, clid = 2101, name = McEventInfo
AthenaPoolAddre...  DEBUG loadAddresses: DataObject address, clid = 9102, name = MyHits
AthenaEventLoopMgr   INFO   ===>>>  start processing event #6, run #1 6 events processed so far  <<<===
ReadCond            DEBUG in execute()
ReadCond             INFO Pedestal x = 193136 y = 14420 z = -175208 string = <..........o..........o..........o..........o..........o..........o..........o..........o..........o..........o..........o..........o..........o..........o..........o..........o..........o..........o..........o..........o>
ReadData            DEBUG in execute()
ReadData             INFO EventStreamInfo: Number of events = 20
ReadData             INFO EventStreamInfo: ItemList:
ReadData             INFO CLID = 2101, key = McEventInfo
ReadData             INFO CLID = 9102, key = MyHits
ReadData             INFO CLID = 222376821, key = StreamX
ReadData             INFO EventType: Event type: sim/data -  is sim , testbeam/atlas -  is atlas , calib/physics -  is physics 
ReadData             INFO TagInfo: 
ReadData             INFO EventInfo event: 6 run: 1
ReadData             INFO Get Smart data ptr 1
ReadData             INFO Could not find ExampleTrackContainer/MyTracks
ReadData             INFO Hit x = 601.235 y = 97.655 z = -373.328 detector = DummyHitDetector
ReadData             INFO Hit x = 604.445 y = 91.9761 z = -505.268 detector = DummyHitDetector
ReadData             INFO Hit x = 607.654 y = 86.2972 z = -529.765 detector = DummyHitDetector
ReadData             INFO Hit x = 610.865 y = 80.6183 z = -540.086 detector = DummyHitDetector
ReadData             INFO Hit x = 614.075 y = 74.9394 z = -545.774 detector = DummyHitDetector
ReadData             INFO Hit x = 617.284 y = 69.2605 z = -549.377 detector = DummyHitDetector
ReadData             INFO Hit x = 620.495 y = 63.5816 z = -551.864 detector = DummyHitDetector
ReadData             INFO Hit x = 623.705 y = 57.9027 z = -553.684 detector = DummyHitDetector
ReadData             INFO Hit x = 626.914 y = 52.2238 z = -555.073 detector = DummyHitDetector
ReadData             INFO Hit x = 630.125 y = 46.5449 z = -556.169 detector = DummyHitDetector
AthenaEventLoopMgr   INFO   ===>>>  done processing event #6, run #1 7 events processed so far  <<<===
EventSelector       DEBUG Get AttributeList from the collection
EventSelector       DEBUG AttributeList size 12
EventSelector       DEBUG record AthenaAttribute, name = Token = [DB=????][CNT=POOLContainer(DataHeader)][CLID=????][TECH=00000203][OID=00000005-00000007].
EventSelector       DEBUG record AthenaAttribute, name = eventRef = [DB=????][CNT=POOLContainer(DataHeader)][CLID=????][TECH=00000203][OID=00000005-00000007].
EventSelector       DEBUG found AthenaAttribute, name = eventRef = [DB=????][CNT=POOLContainer(DataHeader)][CLID=????][TECH=00000203][OID=00000005-00000007]
AthenaPoolAddre...  DEBUG The current Event contains: 3 objects
AthenaPoolAddre...  DEBUG loadAddresses: DataObject address, clid = 2101, name = McEventInfo
AthenaPoolAddre...  DEBUG loadAddresses: DataObject address, clid = 9102, name = MyHits
AthenaEventLoopMgr   INFO   ===>>>  start processing event #7, run #1 7 events processed so far  <<<===
ReadCond            DEBUG in execute()
ReadCond             INFO Pedestal x = 193136 y = 14420 z = -175208 string = <..........o..........o..........o..........o..........o..........o..........o..........o..........o..........o..........o..........o..........o..........o..........o..........o..........o..........o..........o..........o>
ReadData            DEBUG in execute()
ReadData             INFO EventStreamInfo: Number of events = 20
ReadData             INFO EventStreamInfo: ItemList:
ReadData             INFO CLID = 2101, key = McEventInfo
ReadData             INFO CLID = 9102, key = MyHits
ReadData             INFO CLID = 222376821, key = StreamX
ReadData             INFO EventType: Event type: sim/data -  is sim , testbeam/atlas -  is atlas , calib/physics -  is physics 
ReadData             INFO TagInfo: 
ReadData             INFO EventInfo event: 7 run: 1
ReadData             INFO Get Smart data ptr 1
ReadData             INFO Could not find ExampleTrackContainer/MyTracks
ReadData             INFO Hit x = 701.235 y = 97.655 z = -473.328 detector = DummyHitDetector
ReadData             INFO Hit x = 704.445 y = 91.9761 z = -605.268 detector = DummyHitDetector
ReadData             INFO Hit x = 707.654 y = 86.2972 z = -629.765 detector = DummyHitDetector
ReadData             INFO Hit x = 710.865 y = 80.6183 z = -640.086 detector = DummyHitDetector
ReadData             INFO Hit x = 714.075 y = 74.9394 z = -645.774 detector = DummyHitDetector
ReadData             INFO Hit x = 717.284 y = 69.2605 z = -649.377 detector = DummyHitDetector
ReadData             INFO Hit x = 720.495 y = 63.5816 z = -651.864 detector = DummyHitDetector
ReadData             INFO Hit x = 723.705 y = 57.9027 z = -653.684 detector = DummyHitDetector
ReadData             INFO Hit x = 726.914 y = 52.2238 z = -655.073 detector = DummyHitDetector
ReadData             INFO Hit x = 730.125 y = 46.5449 z = -656.169 detector = DummyHitDetector
AthenaEventLoopMgr   INFO   ===>>>  done processing event #7, run #1 8 events processed so far  <<<===
EventSelector       DEBUG Get AttributeList from the collection
EventSelector       DEBUG AttributeList size 12
EventSelector       DEBUG record AthenaAttribute, name = Token = [DB=????][CNT=POOLContainer(DataHeader)][CLID=????][TECH=00000203][OID=00000005-00000008].
EventSelector       DEBUG record AthenaAttribute, name = eventRef = [DB=????][CNT=POOLContainer(DataHeader)][CLID=????][TECH=00000203][OID=00000005-00000008].
EventSelector       DEBUG found AthenaAttribute, name = eventRef = [DB=????][CNT=POOLContainer(DataHeader)][CLID=????][TECH=00000203][OID=00000005-00000008]
AthenaPoolAddre...  DEBUG The current Event contains: 3 objects
AthenaPoolAddre...  DEBUG loadAddresses: DataObject address, clid = 2101, name = McEventInfo
AthenaPoolAddre...  DEBUG loadAddresses: DataObject address, clid = 9102, name = MyHits
AthenaEventLoopMgr   INFO   ===>>>  start processing event #8, run #1 8 events processed so far  <<<===
ReadCond            DEBUG in execute()
ReadCond             INFO Pedestal x = 193136 y = 14420 z = -175208 string = <..........o..........o..........o..........o..........o..........o..........o..........o..........o..........o..........o..........o..........o..........o..........o..........o..........o..........o..........o..........o>
ReadData            DEBUG in execute()
ReadData             INFO EventStreamInfo: Number of events = 20
ReadData             INFO EventStreamInfo: ItemList:
ReadData             INFO CLID = 2101, key = McEventInfo
ReadData             INFO CLID = 9102, key = MyHits
ReadData             INFO CLID = 222376821, key = StreamX
ReadData             INFO EventType: Event type: sim/data -  is sim , testbeam/atlas -  is atlas , calib/physics -  is physics 
ReadData             INFO TagInfo: 
ReadData             INFO EventInfo event: 8 run: 1
ReadData             INFO Get Smart data ptr 1
ReadData             INFO Could not find ExampleTrackContainer/MyTracks
ReadData             INFO Hit x = 801.235 y = 97.655 z = -573.328 detector = DummyHitDetector
ReadData             INFO Hit x = 804.445 y = 91.9761 z = -705.268 detector = DummyHitDetector
ReadData             INFO Hit x = 807.654 y = 86.2972 z = -729.765 detector = DummyHitDetector
ReadData             INFO Hit x = 810.865 y = 80.6183 z = -740.086 detector = DummyHitDetector
ReadData             INFO Hit x = 814.075 y = 74.9394 z = -745.774 detector = DummyHitDetector
ReadData             INFO Hit x = 817.284 y = 69.2605 z = -749.377 detector = DummyHitDetector
ReadData             INFO Hit x = 820.495 y = 63.5816 z = -751.864 detector = DummyHitDetector
ReadData             INFO Hit x = 823.705 y = 57.9027 z = -753.684 detector = DummyHitDetector
ReadData             INFO Hit x = 826.914 y = 52.2238 z = -755.073 detector = DummyHitDetector
ReadData             INFO Hit x = 830.125 y = 46.5449 z = -756.169 detector = DummyHitDetector
AthenaEventLoopMgr   INFO   ===>>>  done processing event #8, run #1 9 events processed so far  <<<===
EventSelector       DEBUG Get AttributeList from the collection
EventSelector       DEBUG AttributeList size 12
EventSelector       DEBUG record AthenaAttribute, name = Token = [DB=????][CNT=POOLContainer(DataHeader)][CLID=????][TECH=00000203][OID=00000005-00000009].
EventSelector       DEBUG record AthenaAttribute, name = eventRef = [DB=????][CNT=POOLContainer(DataHeader)][CLID=????][TECH=00000203][OID=00000005-00000009].
EventSelector       DEBUG found AthenaAttribute, name = eventRef = [DB=????][CNT=POOLContainer(DataHeader)][CLID=????][TECH=00000203][OID=00000005-00000009]
AthenaPoolAddre...  DEBUG The current Event contains: 3 objects
AthenaPoolAddre...  DEBUG loadAddresses: DataObject address, clid = 2101, name = McEventInfo
AthenaPoolAddre...  DEBUG loadAddresses: DataObject address, clid = 9102, name = MyHits
AthenaEventLoopMgr   INFO   ===>>>  start processing event #9, run #1 9 events processed so far  <<<===
ReadCond            DEBUG in execute()
ReadCond             INFO Pedestal x = 193136 y = 14420 z = -175208 string = <..........o..........o..........o..........o..........o..........o..........o..........o..........o..........o..........o..........o..........o..........o..........o..........o..........o..........o..........o..........o>
ReadData            DEBUG in execute()
ReadData             INFO EventStreamInfo: Number of events = 20
ReadData             INFO EventStreamInfo: ItemList:
ReadData             INFO CLID = 2101, key = McEventInfo
ReadData             INFO CLID = 9102, key = MyHits
ReadData             INFO CLID = 222376821, key = StreamX
ReadData             INFO EventType: Event type: sim/data -  is sim , testbeam/atlas -  is atlas , calib/physics -  is physics 
ReadData             INFO TagInfo: 
ReadData             INFO EventInfo event: 9 run: 1
ReadData             INFO Get Smart data ptr 1
ReadData             INFO Could not find ExampleTrackContainer/MyTracks
ReadData             INFO Hit x = 901.235 y = 97.655 z = -673.328 detector = DummyHitDetector
ReadData             INFO Hit x = 904.445 y = 91.9761 z = -805.268 detector = DummyHitDetector
ReadData             INFO Hit x = 907.654 y = 86.2972 z = -829.765 detector = DummyHitDetector
ReadData             INFO Hit x = 910.865 y = 80.6183 z = -840.086 detector = DummyHitDetector
ReadData             INFO Hit x = 914.075 y = 74.9394 z = -845.774 detector = DummyHitDetector
ReadData             INFO Hit x = 917.284 y = 69.2605 z = -849.377 detector = DummyHitDetector
ReadData             INFO Hit x = 920.495 y = 63.5816 z = -851.864 detector = DummyHitDetector
ReadData             INFO Hit x = 923.705 y = 57.9027 z = -853.684 detector = DummyHitDetector
ReadData             INFO Hit x = 926.914 y = 52.2238 z = -855.073 detector = DummyHitDetector
ReadData             INFO Hit x = 930.125 y = 46.5449 z = -856.169 detector = DummyHitDetector
AthenaEventLoopMgr   INFO   ===>>>  done processing event #9, run #1 10 events processed so far  <<<===
EventSelector       DEBUG Get AttributeList from the collection
EventSelector       DEBUG AttributeList size 12
EventSelector       DEBUG record AthenaAttribute, name = Token = [DB=????][CNT=POOLContainer(DataHeader)][CLID=????][TECH=00000203][OID=00000005-0000000A].
EventSelector       DEBUG record AthenaAttribute, name = eventRef = [DB=????][CNT=POOLContainer(DataHeader)][CLID=????][TECH=00000203][OID=00000005-0000000A].
EventSelector       DEBUG found AthenaAttribute, name = eventRef = [DB=????][CNT=POOLContainer(DataHeader)][CLID=????][TECH=00000203][OID=00000005-0000000A]
AthenaPoolAddre...  DEBUG The current Event contains: 3 objects
AthenaPoolAddre...  DEBUG loadAddresses: DataObject address, clid = 2101, name = McEventInfo
AthenaPoolAddre...  DEBUG loadAddresses: DataObject address, clid = 9102, name = MyHits
AthenaEventLoopMgr   INFO   ===>>>  start processing event #10, run #1 10 events processed so far  <<<===
ReadCond            DEBUG in execute()
ReadCond             INFO Pedestal x = 193136 y = 14420 z = -175208 string = <..........o..........o..........o..........o..........o..........o..........o..........o..........o..........o..........o..........o..........o..........o..........o..........o..........o..........o..........o..........o>
ReadData            DEBUG in execute()
ReadData             INFO EventStreamInfo: Number of events = 20
ReadData             INFO EventStreamInfo: ItemList:
ReadData             INFO CLID = 2101, key = McEventInfo
ReadData             INFO CLID = 9102, key = MyHits
ReadData             INFO CLID = 222376821, key = StreamX
ReadData             INFO EventType: Event type: sim/data -  is sim , testbeam/atlas -  is atlas , calib/physics -  is physics 
ReadData             INFO TagInfo: 
ReadData             INFO EventInfo event: 10 run: 1
ReadData             INFO Get Smart data ptr 1
ReadData             INFO Could not find ExampleTrackContainer/MyTracks
ReadData             INFO Hit x = 1001.23 y = 97.655 z = -773.328 detector = DummyHitDetector
ReadData             INFO Hit x = 1004.44 y = 91.9761 z = -905.268 detector = DummyHitDetector
ReadData             INFO Hit x = 1007.65 y = 86.2972 z = -929.765 detector = DummyHitDetector
ReadData             INFO Hit x = 1010.86 y = 80.6183 z = -940.086 detector = DummyHitDetector
ReadData             INFO Hit x = 1014.07 y = 74.9394 z = -945.774 detector = DummyHitDetector
ReadData             INFO Hit x = 1017.28 y = 69.2605 z = -949.377 detector = DummyHitDetector
ReadData             INFO Hit x = 1020.49 y = 63.5816 z = -951.864 detector = DummyHitDetector
ReadData             INFO Hit x = 1023.7 y = 57.9027 z = -953.684 detector = DummyHitDetector
ReadData             INFO Hit x = 1026.91 y = 52.2238 z = -955.073 detector = DummyHitDetector
ReadData             INFO Hit x = 1030.12 y = 46.5449 z = -956.169 detector = DummyHitDetector
AthenaEventLoopMgr   INFO   ===>>>  done processing event #10, run #1 11 events processed so far  <<<===
EventSelector       DEBUG Get AttributeList from the collection
EventSelector       DEBUG AttributeList size 12
EventSelector       DEBUG record AthenaAttribute, name = Token = [DB=????][CNT=POOLContainer(DataHeader)][CLID=????][TECH=00000203][OID=00000005-0000000B].
EventSelector       DEBUG record AthenaAttribute, name = eventRef = [DB=????][CNT=POOLContainer(DataHeader)][CLID=????][TECH=00000203][OID=00000005-0000000B].
EventSelector       DEBUG found AthenaAttribute, name = eventRef = [DB=????][CNT=POOLContainer(DataHeader)][CLID=????][TECH=00000203][OID=00000005-0000000B]
AthenaPoolAddre...  DEBUG The current Event contains: 3 objects
AthenaPoolAddre...  DEBUG loadAddresses: DataObject address, clid = 2101, name = McEventInfo
AthenaPoolAddre...  DEBUG loadAddresses: DataObject address, clid = 9102, name = MyHits
AthenaEventLoopMgr   INFO   ===>>>  start processing event #11, run #1 11 events processed so far  <<<===
ReadCond            DEBUG in execute()
ReadCond             INFO Pedestal x = 193136 y = 14420 z = -175208 string = <..........o..........o..........o..........o..........o..........o..........o..........o..........o..........o..........o..........o..........o..........o..........o..........o..........o..........o..........o..........o>
ReadData            DEBUG in execute()
ReadData             INFO EventStreamInfo: Number of events = 20
ReadData             INFO EventStreamInfo: ItemList:
ReadData             INFO CLID = 2101, key = McEventInfo
ReadData             INFO CLID = 9102, key = MyHits
ReadData             INFO CLID = 222376821, key = StreamX
ReadData             INFO EventType: Event type: sim/data -  is sim , testbeam/atlas -  is atlas , calib/physics -  is physics 
ReadData             INFO TagInfo: 
ReadData             INFO EventInfo event: 11 run: 1
ReadData             INFO Get Smart data ptr 1
ReadData             INFO Could not find ExampleTrackContainer/MyTracks
ReadData             INFO Hit x = 1101.23 y = 97.655 z = -873.328 detector = DummyHitDetector
ReadData             INFO Hit x = 1104.44 y = 91.9761 z = -1005.27 detector = DummyHitDetector
ReadData             INFO Hit x = 1107.65 y = 86.2972 z = -1029.77 detector = DummyHitDetector
ReadData             INFO Hit x = 1110.86 y = 80.6183 z = -1040.09 detector = DummyHitDetector
ReadData             INFO Hit x = 1114.07 y = 74.9394 z = -1045.77 detector = DummyHitDetector
ReadData             INFO Hit x = 1117.28 y = 69.2605 z = -1049.38 detector = DummyHitDetector
ReadData             INFO Hit x = 1120.49 y = 63.5816 z = -1051.86 detector = DummyHitDetector
ReadData             INFO Hit x = 1123.7 y = 57.9027 z = -1053.68 detector = DummyHitDetector
ReadData             INFO Hit x = 1126.91 y = 52.2238 z = -1055.07 detector = DummyHitDetector
ReadData             INFO Hit x = 1130.12 y = 46.5449 z = -1056.17 detector = DummyHitDetector
AthenaEventLoopMgr   INFO   ===>>>  done processing event #11, run #1 12 events processed so far  <<<===
EventSelector       DEBUG Get AttributeList from the collection
EventSelector       DEBUG AttributeList size 12
EventSelector       DEBUG record AthenaAttribute, name = Token = [DB=????][CNT=POOLContainer(DataHeader)][CLID=????][TECH=00000203][OID=00000005-0000000C].
EventSelector       DEBUG record AthenaAttribute, name = eventRef = [DB=????][CNT=POOLContainer(DataHeader)][CLID=????][TECH=00000203][OID=00000005-0000000C].
EventSelector       DEBUG found AthenaAttribute, name = eventRef = [DB=????][CNT=POOLContainer(DataHeader)][CLID=????][TECH=00000203][OID=00000005-0000000C]
AthenaPoolAddre...  DEBUG The current Event contains: 3 objects
AthenaPoolAddre...  DEBUG loadAddresses: DataObject address, clid = 2101, name = McEventInfo
AthenaPoolAddre...  DEBUG loadAddresses: DataObject address, clid = 9102, name = MyHits
AthenaEventLoopMgr   INFO   ===>>>  start processing event #12, run #1 12 events processed so far  <<<===
ReadCond            DEBUG in execute()
ReadCond             INFO Pedestal x = 193136 y = 14420 z = -175208 string = <..........o..........o..........o..........o..........o..........o..........o..........o..........o..........o..........o..........o..........o..........o..........o..........o..........o..........o..........o..........o>
ReadData            DEBUG in execute()
ReadData             INFO EventStreamInfo: Number of events = 20
ReadData             INFO EventStreamInfo: ItemList:
ReadData             INFO CLID = 2101, key = McEventInfo
ReadData             INFO CLID = 9102, key = MyHits
ReadData             INFO CLID = 222376821, key = StreamX
ReadData             INFO EventType: Event type: sim/data -  is sim , testbeam/atlas -  is atlas , calib/physics -  is physics 
ReadData             INFO TagInfo: 
ReadData             INFO EventInfo event: 12 run: 1
ReadData             INFO Get Smart data ptr 1
ReadData             INFO Could not find ExampleTrackContainer/MyTracks
ReadData             INFO Hit x = 1201.23 y = 97.655 z = -973.328 detector = DummyHitDetector
ReadData             INFO Hit x = 1204.44 y = 91.9761 z = -1105.27 detector = DummyHitDetector
ReadData             INFO Hit x = 1207.65 y = 86.2972 z = -1129.77 detector = DummyHitDetector
ReadData             INFO Hit x = 1210.86 y = 80.6183 z = -1140.09 detector = DummyHitDetector
ReadData             INFO Hit x = 1214.07 y = 74.9394 z = -1145.77 detector = DummyHitDetector
ReadData             INFO Hit x = 1217.28 y = 69.2605 z = -1149.38 detector = DummyHitDetector
ReadData             INFO Hit x = 1220.49 y = 63.5816 z = -1151.86 detector = DummyHitDetector
ReadData             INFO Hit x = 1223.7 y = 57.9027 z = -1153.68 detector = DummyHitDetector
ReadData             INFO Hit x = 1226.91 y = 52.2238 z = -1155.07 detector = DummyHitDetector
ReadData             INFO Hit x = 1230.12 y = 46.5449 z = -1156.17 detector = DummyHitDetector
AthenaEventLoopMgr   INFO   ===>>>  done processing event #12, run #1 13 events processed so far  <<<===
EventSelector       DEBUG Get AttributeList from the collection
EventSelector       DEBUG AttributeList size 12
EventSelector       DEBUG record AthenaAttribute, name = Token = [DB=????][CNT=POOLContainer(DataHeader)][CLID=????][TECH=00000203][OID=00000005-0000000D].
EventSelector       DEBUG record AthenaAttribute, name = eventRef = [DB=????][CNT=POOLContainer(DataHeader)][CLID=????][TECH=00000203][OID=00000005-0000000D].
EventSelector       DEBUG found AthenaAttribute, name = eventRef = [DB=????][CNT=POOLContainer(DataHeader)][CLID=????][TECH=00000203][OID=00000005-0000000D]
AthenaPoolAddre...  DEBUG The current Event contains: 3 objects
AthenaPoolAddre...  DEBUG loadAddresses: DataObject address, clid = 2101, name = McEventInfo
AthenaPoolAddre...  DEBUG loadAddresses: DataObject address, clid = 9102, name = MyHits
AthenaEventLoopMgr   INFO   ===>>>  start processing event #13, run #1 13 events processed so far  <<<===
ReadCond            DEBUG in execute()
ReadCond             INFO Pedestal x = 193136 y = 14420 z = -175208 string = <..........o..........o..........o..........o..........o..........o..........o..........o..........o..........o..........o..........o..........o..........o..........o..........o..........o..........o..........o..........o>
ReadData            DEBUG in execute()
ReadData             INFO EventStreamInfo: Number of events = 20
ReadData             INFO EventStreamInfo: ItemList:
ReadData             INFO CLID = 2101, key = McEventInfo
ReadData             INFO CLID = 9102, key = MyHits
ReadData             INFO CLID = 222376821, key = StreamX
ReadData             INFO EventType: Event type: sim/data -  is sim , testbeam/atlas -  is atlas , calib/physics -  is physics 
ReadData             INFO TagInfo: 
ReadData             INFO EventInfo event: 13 run: 1
ReadData             INFO Get Smart data ptr 1
ReadData             INFO Could not find ExampleTrackContainer/MyTracks
ReadData             INFO Hit x = 1301.23 y = 97.655 z = -1073.33 detector = DummyHitDetector
ReadData             INFO Hit x = 1304.44 y = 91.9761 z = -1205.27 detector = DummyHitDetector
ReadData             INFO Hit x = 1307.65 y = 86.2972 z = -1229.77 detector = DummyHitDetector
ReadData             INFO Hit x = 1310.86 y = 80.6183 z = -1240.09 detector = DummyHitDetector
ReadData             INFO Hit x = 1314.07 y = 74.9394 z = -1245.77 detector = DummyHitDetector
ReadData             INFO Hit x = 1317.28 y = 69.2605 z = -1249.38 detector = DummyHitDetector
ReadData             INFO Hit x = 1320.49 y = 63.5816 z = -1251.86 detector = DummyHitDetector
ReadData             INFO Hit x = 1323.7 y = 57.9027 z = -1253.68 detector = DummyHitDetector
ReadData             INFO Hit x = 1326.91 y = 52.2238 z = -1255.07 detector = DummyHitDetector
ReadData             INFO Hit x = 1330.12 y = 46.5449 z = -1256.17 detector = DummyHitDetector
AthenaEventLoopMgr   INFO   ===>>>  done processing event #13, run #1 14 events processed so far  <<<===
EventSelector       DEBUG Get AttributeList from the collection
EventSelector       DEBUG AttributeList size 12
EventSelector       DEBUG record AthenaAttribute, name = Token = [DB=????][CNT=POOLContainer(DataHeader)][CLID=????][TECH=00000203][OID=00000005-0000000E].
EventSelector       DEBUG record AthenaAttribute, name = eventRef = [DB=????][CNT=POOLContainer(DataHeader)][CLID=????][TECH=00000203][OID=00000005-0000000E].
EventSelector       DEBUG found AthenaAttribute, name = eventRef = [DB=????][CNT=POOLContainer(DataHeader)][CLID=????][TECH=00000203][OID=00000005-0000000E]
AthenaPoolAddre...  DEBUG The current Event contains: 3 objects
AthenaPoolAddre...  DEBUG loadAddresses: DataObject address, clid = 2101, name = McEventInfo
AthenaPoolAddre...  DEBUG loadAddresses: DataObject address, clid = 9102, name = MyHits
AthenaEventLoopMgr   INFO   ===>>>  start processing event #14, run #1 14 events processed so far  <<<===
ReadCond            DEBUG in execute()
ReadCond             INFO Pedestal x = 193136 y = 14420 z = -175208 string = <..........o..........o..........o..........o..........o..........o..........o..........o..........o..........o..........o..........o..........o..........o..........o..........o..........o..........o..........o..........o>
ReadData            DEBUG in execute()
ReadData             INFO EventStreamInfo: Number of events = 20
ReadData             INFO EventStreamInfo: ItemList:
ReadData             INFO CLID = 2101, key = McEventInfo
ReadData             INFO CLID = 9102, key = MyHits
ReadData             INFO CLID = 222376821, key = StreamX
ReadData             INFO EventType: Event type: sim/data -  is sim , testbeam/atlas -  is atlas , calib/physics -  is physics 
ReadData             INFO TagInfo: 
ReadData             INFO EventInfo event: 14 run: 1
ReadData             INFO Get Smart data ptr 1
ReadData             INFO Could not find ExampleTrackContainer/MyTracks
ReadData             INFO Hit x = 1401.23 y = 97.655 z = -1173.33 detector = DummyHitDetector
ReadData             INFO Hit x = 1404.44 y = 91.9761 z = -1305.27 detector = DummyHitDetector
ReadData             INFO Hit x = 1407.65 y = 86.2972 z = -1329.77 detector = DummyHitDetector
ReadData             INFO Hit x = 1410.86 y = 80.6183 z = -1340.09 detector = DummyHitDetector
ReadData             INFO Hit x = 1414.07 y = 74.9394 z = -1345.77 detector = DummyHitDetector
ReadData             INFO Hit x = 1417.28 y = 69.2605 z = -1349.38 detector = DummyHitDetector
ReadData             INFO Hit x = 1420.49 y = 63.5816 z = -1351.86 detector = DummyHitDetector
ReadData             INFO Hit x = 1423.7 y = 57.9027 z = -1353.68 detector = DummyHitDetector
ReadData             INFO Hit x = 1426.91 y = 52.2238 z = -1355.07 detector = DummyHitDetector
ReadData             INFO Hit x = 1430.12 y = 46.5449 z = -1356.17 detector = DummyHitDetector
AthenaEventLoopMgr   INFO   ===>>>  done processing event #14, run #1 15 events processed so far  <<<===
EventSelector       DEBUG Get AttributeList from the collection
EventSelector       DEBUG AttributeList size 12
EventSelector       DEBUG record AthenaAttribute, name = Token = [DB=????][CNT=POOLContainer(DataHeader)][CLID=????][TECH=00000203][OID=00000005-0000000F].
EventSelector       DEBUG record AthenaAttribute, name = eventRef = [DB=????][CNT=POOLContainer(DataHeader)][CLID=????][TECH=00000203][OID=00000005-0000000F].
EventSelector       DEBUG found AthenaAttribute, name = eventRef = [DB=????][CNT=POOLContainer(DataHeader)][CLID=????][TECH=00000203][OID=00000005-0000000F]
AthenaPoolAddre...  DEBUG The current Event contains: 3 objects
AthenaPoolAddre...  DEBUG loadAddresses: DataObject address, clid = 2101, name = McEventInfo
AthenaPoolAddre...  DEBUG loadAddresses: DataObject address, clid = 9102, name = MyHits
AthenaEventLoopMgr   INFO   ===>>>  start processing event #15, run #1 15 events processed so far  <<<===
ReadCond            DEBUG in execute()
ReadCond             INFO Pedestal x = 193136 y = 14420 z = -175208 string = <..........o..........o..........o..........o..........o..........o..........o..........o..........o..........o..........o..........o..........o..........o..........o..........o..........o..........o..........o..........o>
ReadData            DEBUG in execute()
ReadData             INFO EventStreamInfo: Number of events = 20
ReadData             INFO EventStreamInfo: ItemList:
ReadData             INFO CLID = 2101, key = McEventInfo
ReadData             INFO CLID = 9102, key = MyHits
ReadData             INFO CLID = 222376821, key = StreamX
ReadData             INFO EventType: Event type: sim/data -  is sim , testbeam/atlas -  is atlas , calib/physics -  is physics 
ReadData             INFO TagInfo: 
ReadData             INFO EventInfo event: 15 run: 1
ReadData             INFO Get Smart data ptr 1
ReadData             INFO Could not find ExampleTrackContainer/MyTracks
ReadData             INFO Hit x = 1501.23 y = 97.655 z = -1273.33 detector = DummyHitDetector
ReadData             INFO Hit x = 1504.44 y = 91.9761 z = -1405.27 detector = DummyHitDetector
ReadData             INFO Hit x = 1507.65 y = 86.2972 z = -1429.77 detector = DummyHitDetector
ReadData             INFO Hit x = 1510.86 y = 80.6183 z = -1440.09 detector = DummyHitDetector
ReadData             INFO Hit x = 1514.07 y = 74.9394 z = -1445.77 detector = DummyHitDetector
ReadData             INFO Hit x = 1517.28 y = 69.2605 z = -1449.38 detector = DummyHitDetector
ReadData             INFO Hit x = 1520.49 y = 63.5816 z = -1451.86 detector = DummyHitDetector
ReadData             INFO Hit x = 1523.7 y = 57.9027 z = -1453.68 detector = DummyHitDetector
ReadData             INFO Hit x = 1526.91 y = 52.2238 z = -1455.07 detector = DummyHitDetector
ReadData             INFO Hit x = 1530.12 y = 46.5449 z = -1456.17 detector = DummyHitDetector
AthenaEventLoopMgr   INFO   ===>>>  done processing event #15, run #1 16 events processed so far  <<<===
EventSelector       DEBUG Get AttributeList from the collection
EventSelector       DEBUG AttributeList size 12
EventSelector       DEBUG record AthenaAttribute, name = Token = [DB=????][CNT=POOLContainer(DataHeader)][CLID=????][TECH=00000203][OID=00000005-00000010].
EventSelector       DEBUG record AthenaAttribute, name = eventRef = [DB=????][CNT=POOLContainer(DataHeader)][CLID=????][TECH=00000203][OID=00000005-00000010].
EventSelector       DEBUG found AthenaAttribute, name = eventRef = [DB=????][CNT=POOLContainer(DataHeader)][CLID=????][TECH=00000203][OID=00000005-00000010]
AthenaPoolAddre...  DEBUG The current Event contains: 3 objects
AthenaPoolAddre...  DEBUG loadAddresses: DataObject address, clid = 2101, name = McEventInfo
AthenaPoolAddre...  DEBUG loadAddresses: DataObject address, clid = 9102, name = MyHits
AthenaEventLoopMgr   INFO   ===>>>  start processing event #16, run #1 16 events processed so far  <<<===
ReadCond            DEBUG in execute()
ReadCond             INFO Pedestal x = 193136 y = 14420 z = -175208 string = <..........o..........o..........o..........o..........o..........o..........o..........o..........o..........o..........o..........o..........o..........o..........o..........o..........o..........o..........o..........o>
ReadData            DEBUG in execute()
ReadData             INFO EventStreamInfo: Number of events = 20
ReadData             INFO EventStreamInfo: ItemList:
ReadData             INFO CLID = 2101, key = McEventInfo
ReadData             INFO CLID = 9102, key = MyHits
ReadData             INFO CLID = 222376821, key = StreamX
ReadData             INFO EventType: Event type: sim/data -  is sim , testbeam/atlas -  is atlas , calib/physics -  is physics 
ReadData             INFO TagInfo: 
ReadData             INFO EventInfo event: 16 run: 1
ReadData             INFO Get Smart data ptr 1
ReadData             INFO Could not find ExampleTrackContainer/MyTracks
ReadData             INFO Hit x = 1601.23 y = 97.655 z = -1373.33 detector = DummyHitDetector
ReadData             INFO Hit x = 1604.44 y = 91.9761 z = -1505.27 detector = DummyHitDetector
ReadData             INFO Hit x = 1607.65 y = 86.2972 z = -1529.77 detector = DummyHitDetector
ReadData             INFO Hit x = 1610.86 y = 80.6183 z = -1540.09 detector = DummyHitDetector
ReadData             INFO Hit x = 1614.07 y = 74.9394 z = -1545.77 detector = DummyHitDetector
ReadData             INFO Hit x = 1617.28 y = 69.2605 z = -1549.38 detector = DummyHitDetector
ReadData             INFO Hit x = 1620.49 y = 63.5816 z = -1551.86 detector = DummyHitDetector
ReadData             INFO Hit x = 1623.7 y = 57.9027 z = -1553.68 detector = DummyHitDetector
ReadData             INFO Hit x = 1626.91 y = 52.2238 z = -1555.07 detector = DummyHitDetector
ReadData             INFO Hit x = 1630.12 y = 46.5449 z = -1556.17 detector = DummyHitDetector
AthenaEventLoopMgr   INFO   ===>>>  done processing event #16, run #1 17 events processed so far  <<<===
EventSelector       DEBUG Get AttributeList from the collection
EventSelector       DEBUG AttributeList size 12
EventSelector       DEBUG record AthenaAttribute, name = Token = [DB=????][CNT=POOLContainer(DataHeader)][CLID=????][TECH=00000203][OID=00000005-00000011].
EventSelector       DEBUG record AthenaAttribute, name = eventRef = [DB=????][CNT=POOLContainer(DataHeader)][CLID=????][TECH=00000203][OID=00000005-00000011].
EventSelector       DEBUG found AthenaAttribute, name = eventRef = [DB=????][CNT=POOLContainer(DataHeader)][CLID=????][TECH=00000203][OID=00000005-00000011]
AthenaPoolAddre...  DEBUG The current Event contains: 3 objects
AthenaPoolAddre...  DEBUG loadAddresses: DataObject address, clid = 2101, name = McEventInfo
AthenaPoolAddre...  DEBUG loadAddresses: DataObject address, clid = 9102, name = MyHits
AthenaEventLoopMgr   INFO   ===>>>  start processing event #17, run #1 17 events processed so far  <<<===
ReadCond            DEBUG in execute()
ReadCond             INFO Pedestal x = 193136 y = 14420 z = -175208 string = <..........o..........o..........o..........o..........o..........o..........o..........o..........o..........o..........o..........o..........o..........o..........o..........o..........o..........o..........o..........o>
ReadData            DEBUG in execute()
ReadData             INFO EventStreamInfo: Number of events = 20
ReadData             INFO EventStreamInfo: ItemList:
ReadData             INFO CLID = 2101, key = McEventInfo
ReadData             INFO CLID = 9102, key = MyHits
ReadData             INFO CLID = 222376821, key = StreamX
ReadData             INFO EventType: Event type: sim/data -  is sim , testbeam/atlas -  is atlas , calib/physics -  is physics 
ReadData             INFO TagInfo: 
ReadData             INFO EventInfo event: 17 run: 1
ReadData             INFO Get Smart data ptr 1
ReadData             INFO Could not find ExampleTrackContainer/MyTracks
ReadData             INFO Hit x = 1701.23 y = 97.655 z = -1473.33 detector = DummyHitDetector
ReadData             INFO Hit x = 1704.44 y = 91.9761 z = -1605.27 detector = DummyHitDetector
ReadData             INFO Hit x = 1707.65 y = 86.2972 z = -1629.77 detector = DummyHitDetector
ReadData             INFO Hit x = 1710.86 y = 80.6183 z = -1640.09 detector = DummyHitDetector
ReadData             INFO Hit x = 1714.07 y = 74.9394 z = -1645.77 detector = DummyHitDetector
ReadData             INFO Hit x = 1717.28 y = 69.2605 z = -1649.38 detector = DummyHitDetector
ReadData             INFO Hit x = 1720.49 y = 63.5816 z = -1651.86 detector = DummyHitDetector
ReadData             INFO Hit x = 1723.7 y = 57.9027 z = -1653.68 detector = DummyHitDetector
ReadData             INFO Hit x = 1726.91 y = 52.2238 z = -1655.07 detector = DummyHitDetector
ReadData             INFO Hit x = 1730.12 y = 46.5449 z = -1656.17 detector = DummyHitDetector
AthenaEventLoopMgr   INFO   ===>>>  done processing event #17, run #1 18 events processed so far  <<<===
EventSelector       DEBUG Get AttributeList from the collection
EventSelector       DEBUG AttributeList size 12
EventSelector       DEBUG record AthenaAttribute, name = Token = [DB=????][CNT=POOLContainer(DataHeader)][CLID=????][TECH=00000203][OID=00000005-00000012].
EventSelector       DEBUG record AthenaAttribute, name = eventRef = [DB=????][CNT=POOLContainer(DataHeader)][CLID=????][TECH=00000203][OID=00000005-00000012].
EventSelector       DEBUG found AthenaAttribute, name = eventRef = [DB=????][CNT=POOLContainer(DataHeader)][CLID=????][TECH=00000203][OID=00000005-00000012]
AthenaPoolAddre...  DEBUG The current Event contains: 3 objects
AthenaPoolAddre...  DEBUG loadAddresses: DataObject address, clid = 2101, name = McEventInfo
AthenaPoolAddre...  DEBUG loadAddresses: DataObject address, clid = 9102, name = MyHits
AthenaEventLoopMgr   INFO   ===>>>  start processing event #18, run #1 18 events processed so far  <<<===
ReadCond            DEBUG in execute()
ReadCond             INFO Pedestal x = 193136 y = 14420 z = -175208 string = <..........o..........o..........o..........o..........o..........o..........o..........o..........o..........o..........o..........o..........o..........o..........o..........o..........o..........o..........o..........o>
ReadData            DEBUG in execute()
ReadData             INFO EventStreamInfo: Number of events = 20
ReadData             INFO EventStreamInfo: ItemList:
ReadData             INFO CLID = 2101, key = McEventInfo
ReadData             INFO CLID = 9102, key = MyHits
ReadData             INFO CLID = 222376821, key = StreamX
ReadData             INFO EventType: Event type: sim/data -  is sim , testbeam/atlas -  is atlas , calib/physics -  is physics 
ReadData             INFO TagInfo: 
ReadData             INFO EventInfo event: 18 run: 1
ReadData             INFO Get Smart data ptr 1
ReadData             INFO Could not find ExampleTrackContainer/MyTracks
ReadData             INFO Hit x = 1801.23 y = 97.655 z = -1573.33 detector = DummyHitDetector
ReadData             INFO Hit x = 1804.44 y = 91.9761 z = -1705.27 detector = DummyHitDetector
ReadData             INFO Hit x = 1807.65 y = 86.2972 z = -1729.77 detector = DummyHitDetector
ReadData             INFO Hit x = 1810.86 y = 80.6183 z = -1740.09 detector = DummyHitDetector
ReadData             INFO Hit x = 1814.07 y = 74.9394 z = -1745.77 detector = DummyHitDetector
ReadData             INFO Hit x = 1817.28 y = 69.2605 z = -1749.38 detector = DummyHitDetector
ReadData             INFO Hit x = 1820.49 y = 63.5816 z = -1751.86 detector = DummyHitDetector
ReadData             INFO Hit x = 1823.7 y = 57.9027 z = -1753.68 detector = DummyHitDetector
ReadData             INFO Hit x = 1826.91 y = 52.2238 z = -1755.07 detector = DummyHitDetector
ReadData             INFO Hit x = 1830.12 y = 46.5449 z = -1756.17 detector = DummyHitDetector
AthenaEventLoopMgr   INFO   ===>>>  done processing event #18, run #1 19 events processed so far  <<<===
EventSelector       DEBUG Get AttributeList from the collection
EventSelector       DEBUG AttributeList size 12
EventSelector       DEBUG record AthenaAttribute, name = Token = [DB=????][CNT=POOLContainer(DataHeader)][CLID=????][TECH=00000203][OID=00000005-00000013].
EventSelector       DEBUG record AthenaAttribute, name = eventRef = [DB=????][CNT=POOLContainer(DataHeader)][CLID=????][TECH=00000203][OID=00000005-00000013].
EventSelector       DEBUG found AthenaAttribute, name = eventRef = [DB=????][CNT=POOLContainer(DataHeader)][CLID=????][TECH=00000203][OID=00000005-00000013]
AthenaPoolAddre...  DEBUG The current Event contains: 3 objects
AthenaPoolAddre...  DEBUG loadAddresses: DataObject address, clid = 2101, name = McEventInfo
AthenaPoolAddre...  DEBUG loadAddresses: DataObject address, clid = 9102, name = MyHits
AthenaEventLoopMgr   INFO   ===>>>  start processing event #19, run #1 19 events processed so far  <<<===
ReadCond            DEBUG in execute()
ReadCond             INFO Pedestal x = 193136 y = 14420 z = -175208 string = <..........o..........o..........o..........o..........o..........o..........o..........o..........o..........o..........o..........o..........o..........o..........o..........o..........o..........o..........o..........o>
ReadData            DEBUG in execute()
ReadData             INFO EventStreamInfo: Number of events = 20
ReadData             INFO EventStreamInfo: ItemList:
ReadData             INFO CLID = 2101, key = McEventInfo
ReadData             INFO CLID = 9102, key = MyHits
ReadData             INFO CLID = 222376821, key = StreamX
ReadData             INFO EventType: Event type: sim/data -  is sim , testbeam/atlas -  is atlas , calib/physics -  is physics 
ReadData             INFO TagInfo: 
ReadData             INFO EventInfo event: 19 run: 1
ReadData             INFO Get Smart data ptr 1
ReadData             INFO Could not find ExampleTrackContainer/MyTracks
ReadData             INFO Hit x = 1901.23 y = 97.655 z = -1673.33 detector = DummyHitDetector
ReadData             INFO Hit x = 1904.44 y = 91.9761 z = -1805.27 detector = DummyHitDetector
ReadData             INFO Hit x = 1907.65 y = 86.2972 z = -1829.77 detector = DummyHitDetector
ReadData             INFO Hit x = 1910.86 y = 80.6183 z = -1840.09 detector = DummyHitDetector
ReadData             INFO Hit x = 1914.07 y = 74.9394 z = -1845.77 detector = DummyHitDetector
ReadData             INFO Hit x = 1917.28 y = 69.2605 z = -1849.38 detector = DummyHitDetector
ReadData             INFO Hit x = 1920.49 y = 63.5816 z = -1851.86 detector = DummyHitDetector
ReadData             INFO Hit x = 1923.7 y = 57.9027 z = -1853.68 detector = DummyHitDetector
ReadData             INFO Hit x = 1926.91 y = 52.2238 z = -1855.07 detector = DummyHitDetector
ReadData             INFO Hit x = 1930.12 y = 46.5449 z = -1856.17 detector = DummyHitDetector
AthenaEventLoopMgr   INFO   ===>>>  done processing event #19, run #1 20 events processed so far  <<<===
MetaDataSvc         DEBUG handle() EndInputFile for FID:????
MetaDataSvc         DEBUG retireMetadataSource: FID:????
StorageSvc          DEBUG Disconnect request for database: FID=???? PFN=SimplePoolFile1.root
StorageSvc          DEBUG Closing database: FID=????
AthenaEventLoopMgr   INFO No more events in event selection 
MetaDataSvc         DEBUG MetaDataSvc::stop()
PoolSvc             DEBUG Disconnect request for contextId=0
StorageSvc          DEBUG Disconnect request for database: FID=???? PFN=SimplePoolFile4.root
StorageSvc          DEBUG Closing database: FID=????
PoolSvc             DEBUG Disconnected PersistencySvc session
PoolSvc             DEBUG Disconnect request for contextId=1
PoolSvc             DEBUG Disconnect request for contextId=2
StorageSvc          DEBUG Disconnect request for database: FID=???? PFN=SimplePoolFile4.root
StorageSvc          DEBUG Closing database: FID=????
PoolSvc             DEBUG Disconnected PersistencySvc session
ApplicationMgr       INFO Application Manager Stopped successfully
ReadCond             INFO in finalize()
ReadData             INFO in finalize()
AthDictLoaderSvc     INFO in finalize...
ToolSvc              INFO Removing all tools created by ToolSvc
*****Chrono*****     INFO ****************************************************************************************************
*****Chrono*****     INFO  The Final CPU consumption ( Chrono ) Table (ordered)
*****Chrono*****     INFO ****************************************************************************************************
*****Chrono*****     INFO ****************************************************************************************************
ChronoStatSvc.f...   INFO  Service finalized successfully 
ApplicationMgr       INFO Application Manager Finalized successfully
ApplicationMgr       INFO Application Manager Terminated successfully
Athena               INFO leaving with code 0: "successful run"
