RpcRawDataProvider                                   INFO RpcRawDataProvider::initialize
RpcRawDataProvider                                   INFO  'DoSeededDecoding':False
RpcRawDataProvider.RPC_RawDataProviderToolMT         INFO initialize() successful in RpcRawDataProvider.RPC_RawDataProviderToolMT
TgcRawDataProvider                                   INFO TgcRawDataProvider::initialize
TgcRawDataProvider                                   INFO  'DoSeededDecoding':False
TgcRawDataProvider.TGC_RawDataPro...TgcROD_Decoder   INFO initialize() successful in TgcRawDataProvider.TGC_RawDataProviderToolMT.TgcROD_Decoder
TgcRawDataProvider.TGC_RawDataProviderToolMT         INFO initialize() successful in TgcRawDataProvider.TGC_RawDataProviderToolMT
MdtRawDataProvider                                   INFO MdtRawDataProvider::initialize
MdtRawDataProvider                                   INFO  'DoSeededDecoding':False
MdtRawDataProvider.MDT_RawDataProviderToolMT         INFO Retrieved service ROBDataProviderSvc = ServiceHandle('ROBDataProviderSvc')
MdtRawDataProvider.MDT_RawDataPro...MdtROD_Decoder   INFO Processing configuration for layouts with BME chambers.
MdtRawDataProvider.MDT_RawDataPro...MdtROD_Decoder   INFO Processing configuration for layouts with BMG chambers.
MdtRawDataProvider.MDT_RawDataProviderToolMT         INFO Retrieved tool Decoder = PrivateToolHandle('MdtROD_Decoder/MdtROD_Decoder')
MdtRawDataProvider.MDT_RawDataProviderToolMT         INFO initialize() successful in MdtRawDataProvider.MDT_RawDataProviderToolMT
CscRawDataProvider.CSC_RawDataProviderToolMT         INFO Retrieved service ServiceHandle('ROBDataProviderSvc')
CscRawDataProvider.CSC_RawDataProviderToolMT         INFO Retrieved tool Decoder = PrivateToolHandle('Muon::CscROD_Decoder/CscROD_Decoder')
CscRawDataProvider.CSC_RawDataProviderToolMT         INFO initialize() successful in CscRawDataProvider.CSC_RawDataProviderToolMT
RpcRdoToRpcPrepData.RpcRdoToRpcPrepDataTool          INFO properties are 
RpcRdoToRpcPrepData.RpcRdoToRpcPrepDataTool          INFO produceRpcCoinDatafromTriggerWords 1
RpcRdoToRpcPrepData.RpcRdoToRpcPrepDataTool          INFO reduceCablingOverlap               1
RpcRdoToRpcPrepData.RpcRdoToRpcPrepDataTool          INFO solvePhiAmbiguities                1
RpcRdoToRpcPrepData.RpcRdoToRpcPrepDataTool          INFO timeShift                          -12.5
RpcRdoToRpcPrepData.RpcRdoToRpcPrepDataTool          INFO etaphi_coincidenceTime             20
RpcRdoToRpcPrepData.RpcRdoToRpcPrepDataTool          INFO overlap_timeTolerance              10
RpcRdoToRpcPrepData.RpcRdoToRpcPrepDataTool          INFO Correct prd time from cool db      0
RpcRdoToRpcPrepData                                  INFO Retrieved DecodingTool = PrivateToolHandle('Muon::RpcRdoToPrepDataToolMT/RpcRdoToRpcPrepDataTool')
TgcRdoToTgcPrepData.TgcRdoToTgcPrepDataTool          INFO initialize() successful in TgcRdoToTgcPrepData.TgcRdoToTgcPrepDataTool
TgcRdoToTgcPrepData                                  INFO Retrieved DecodingTool = PrivateToolHandle('Muon::TgcRdoToPrepDataToolMT/TgcRdoToTgcPrepDataTool')
MdtRdoToMdtPrepData.MdtRdoToMdtPrepDataTool          INFO Processing configuration for layouts with BME chambers.
MdtRdoToMdtPrepData.MdtRdoToMdtPrepDataTool          INFO Processing configuration for layouts with BMG chambers.
MdtRdoToMdtPrepData                                  INFO Retrieved DecodingTool = PrivateToolHandle('Muon::MdtRdoToPrepDataToolMT/MdtRdoToMdtPrepDataTool')
CscRdoToCscPrepData                                  INFO Retrieved CscRdoToCscPrepDataTool = PrivateToolHandle('Muon::CscRdoToCscPrepDataToolMT/CscRdoToCscPrepDataTool')
MdtRawDataProvider.MDT_RawDataPro...MdtROD_Decoder   INFO Fraction of fills that use the cache = 0
TgcRawDataProvider.TGC_RawDataPro...TgcROD_Decoder   INFO Fraction of fills that use the cache = 0
RpcROD_Decoder::printcheckformat                     INFO  ============ FINAL RPC DATA FORMAT STAT. =========== 
RpcROD_Decoder::printcheckformat                     INFO  RX Header Errors.............0
RpcROD_Decoder::printcheckformat                     INFO  RX SubHeader Errors..........0
RpcROD_Decoder::printcheckformat                     INFO  PAD Header Errors............0
RpcROD_Decoder::printcheckformat                     INFO  PAD/SL SubHeader Errors......0
RpcROD_Decoder::printcheckformat                     INFO  CM Header Errors.............0
RpcROD_Decoder::printcheckformat                     INFO  CM SubHeader Errors..........0
RpcROD_Decoder::printcheckformat                     INFO  CM Footer Errors.............0
RpcROD_Decoder::printcheckformat                     INFO  PAD PreFooter Errors.........0
RpcROD_Decoder::printcheckformat                     INFO  PAD Footer Errors............0
RpcROD_Decoder::printcheckformat                     INFO  SL Header Errors.............0
RpcROD_Decoder::printcheckformat                     INFO  SL Footer Errors.............0
RpcROD_Decoder::printcheckformat                     INFO  RX Footer Errors.............0
RpcROD_Decoder::printcheckformat                     INFO  CRC8 check Failures..........0
RpcROD_Decoder::printcheckformat                     INFO  ==================================================== 
